<?xml version="1.0" encoding="utf-8"?>
<!-- Generator: Adobe Illustrator 25.0.1, SVG Export Plug-In . SVG Version: 6.00 Build 0)  -->
<svg version="1.1" id="Layer_1" xmlns="http://www.w3.org/2000/svg" xmlns:xlink="http://www.w3.org/1999/xlink" x="0px" y="0px"
	 viewBox="0 0 600 600" style="enable-background:new 0 0 600 600;" xml:space="preserve">
<style type="text/css">
	.st0{clip-path:url(#SVGID_2_);}
	.st1{fill:#0052B4;}
	.st2{stroke:#FFFFFF;stroke-width:120;stroke-miterlimit:80;}
	.st3{clip-path:url(#SVGID_4_);stroke:#C8102E;stroke-width:80;stroke-miterlimit:80;}
	.st4{stroke:#FFFFFF;stroke-width:200;stroke-miterlimit:80;}
	.st5{stroke:#C8102E;stroke-width:120;stroke-miterlimit:80;}
</style>
<g>
	<g>
		<defs>
			<rect id="SVGID_1_" width="600" height="600"/>
		</defs>
		<clipPath id="SVGID_2_">
			<use xlink:href="#SVGID_1_"  style="overflow:visible;"/>
		</clipPath>
		<g class="st0">
			<path class="st1" d="M0,0v600h600V0H0z"/>
			<path class="st2" d="M0,0l600,600 M600,0L0,600"/>
			<g>
				<g>
					<defs>
						<polygon id="SVGID_3_" points="300,300 600,300 600,600 300,600 0,600 0,300 0,0 300,0 600,0 						"/>
					</defs>
					<clipPath id="SVGID_4_">
						<use xlink:href="#SVGID_3_"  style="overflow:visible;"/>
					</clipPath>
					<path class="st3" d="M0,0l600,600 M600,0L0,600"/>
				</g>
			</g>
			<path class="st4" d="M300,0v600 M0,300h600"/>
			<path class="st5" d="M300,0v600 M0,300h600"/>
		</g>
	</g>
</g>
</svg>
