<svg width="372" height="590" viewBox="0 0 372 590" fill="none" xmlns="http://www.w3.org/2000/svg">
<path opacity="0.1" fill-rule="evenodd" clip-rule="evenodd" d="M140.016 54.2519C183.07 69.6889 209.641 109.683 237.469 145.927C269.522 187.674 319.156 227.763 313.285 279.921C307.414 332.075 251.676 361.818 209.624 393.276C175.189 419.037 134.855 429.529 94.2311 443.793C46.2838 460.629 0.733158 495.085 -48.9698 484.079C-102.105 472.313 -153.654 435.197 -173.291 384.553C-192.316 335.486 -157.616 284.497 -146.238 233.218C-136.573 189.659 -142.225 139.903 -111.768 107.278C-81.5152 74.8725 -32.4342 73.8986 11.0447 64.7419C54.29 55.6343 98.3584 39.3153 140.016 54.2519Z" fill="#89ADF5"/>
</svg>
